{
	"info": {
		"name": "ekola",
		"_postman_id": "9baa976d-0d61-40a8-874e-2c1f95e25a82",
		"description": "",
		"schema": "https://schema.getpostman.com/json/collection/v2.1.0/collection.json"
	},
	"item": [
		{
			"name": "saveanswers",
			"request": {
				"method": "POST",
				"header": [
					{
						"key": "Content-Type",
						"value": "application/json"
					}
				],
				"body": {
					"mode": "raw",
					"raw": "{\n\t\"userInfo\": [\n\t\t{ \"First name\": \"Meme\" },\n\t\t{ \"Last name\": \"Master\" }\n\t],\n\t\"answers\": [\n\t\t{\n\t\t\t\"type\" : \"scale\",\n\t\t\t\"values\" : {\n\t        \t\"scale\" : {\n\t            \t\"value\" : 4\n\t        \t}\n\t    \t},\n\t    \t\"proof\" : \"\"\t\n\t\t},\n\t\t{\n\t\t\t\"type\" : \"scale\",\n\t\t\t\"values\" : {\n\t        \t\"scale\" : {\n\t            \t\"value\" : 3\n\t        \t}\n\t    \t},\n\t    \t\"proof\" : \"\"\t\n\t\t}\n\t]\n}"
				},
				"url": {
					"raw": "localhost:3000/answer/save/1",
					"host": [
						"localhost"
					],
					"port": "3000",
					"path": [
						"answer",
						"save",
						"1"
					]
				},
				"description": "Save answers when answering the survey"
			},
			"response": []
		},
		{
			"name": "cancelanswering",
			"request": {
				"method": "GET",
				"header": [],
				"body": {},
				"url": {
					"raw": "localhost:3000/answer/cancel/1",
					"host": [
						"localhost"
					],
					"port": "3000",
					"path": [
						"answer",
						"cancel",
						"1"
					]
				},
				"description": "Cancel a survey session and discard answers"
			},
			"response": []
		},
		{
			"name": "viewresults",
			"request": {
				"method": "GET",
				"header": [],
				"body": {},
				"url": {
					"raw": "localhost:3000/answer/results/1",
					"host": [
						"localhost"
					],
					"port": "3000",
					"path": [
						"answers",
						"results",
						"1"
					]
				},
				"description": "View survey results"
			},
			"response": []
		},
		{
			"name": "exporttoexcel",
			"request": {
				"method": "GET",
				"header": [],
				"body": {},
				"url": {
					"raw": "localhost:3000/answer/excel/1",
					"host": [
						"localhost"
					],
					"port": "3000",
					"path": [
						"answers",
						"excel",
						"1"
					]
				},
				"description": "Export survey results to excel"
			},
			"response": []
		},
		{
			"name": "viewaverages",
			"request": {
				"method": "GET",
				"header": [],
				"body": {},
				"url": {
					"raw": "localhost:3000/answer/averages/1",
					"host": [
						"localhost"
					],
					"port": "3000",
					"path": [
						"answers",
						"averages",
						"1"
					]
				},
				"description": "View average values for survey results"
			},
			"response": []
		},
		{
			"name": "viewsessionanswers",
			"request": {
				"method": "GET",
				"header": [],
				"body": {},
				"url": {
					"raw": "localhost:3000/answer/1",
					"host": [
						"localhost"
					],
					"port": "3000",
					"path": [
						"answer",
						"1"
					]
				},
				"description": "View answers for a single session"
			},
			"response": []
		},
		{
			"name": "createnewsurvey",
			"request": {
				"method": "POST",
				"header": [],
				"body": {
					"mode": "formdata",
					"formdata": [
						{
							"key": "title",
							"value": "test survey",
							"description": "",
							"type": "text"
						},
						{
							"key": "description",
							"value": "something something",
							"description": "",
							"type": "text"
						},
						{
							"key": "evaluation.name",
							"value": "new test evaluation",
							"description": "This can be just evaluation with a number to assign to existing evaluation",
							"type": "text"
						},
						{
							"key": "template",
							"value": "1",
							"description": "This is the template id if the survey is to be created from a template",
							"type": "text"
						}
					]
				},
				"url": {
					"raw": "localhost:3000/survey/new",
					"host": [
						"localhost"
					],
					"port": "3000",
					"path": [
						"survey",
						"new"
					]
				},
				"description": "Initialize a new survey"
			},
			"response": []
		},
		{
			"name": "answersurvey",
			"request": {
				"method": "GET",
				"header": [],
				"body": {},
				"url": {
					"raw": "localhost:3000/survey/1/answer",
					"host": [
						"localhost"
					],
					"port": "3000",
					"path": [
						"survey",
						"1",
						"answer"
					]
				},
				"description": "Answer a survey as a logged in user"
			},
			"response": []
		},
		{
			"name": "answersurveylink",
			"request": {
				"method": "GET",
				"header": [],
				"body": {},
				"url": {
					"raw": "localhost:3000/survey/answer/123abc",
					"host": [
						"localhost"
					],
					"port": "3000",
					"path": [
						"survey",
						"answer",
						"123abc"
					]
				},
				"description": "Answer a survey following anonymous invitation link"
			},
			"response": []
		},
		{
			"name": "savesurvey",
			"request": {
				"method": "POST",
				"header": [
					{
						"key": "Content-Type",
						"value": "application/json"
					}
				],
				"body": {
					"mode": "raw",
					"raw": "{\n\t\"survey\": {\n\t\t\"title\": \"Test survey\",\n\t\t\"description\": \"A slightly more informative description\",\n\t\t\"startDate\": \"2017-12-13T16:43:08+02:00\",\n\t\t\"endDate\": \"2018-1-9T17:00:00+02:00\",\n\t\t\"links\": [1,2,3,4],\n\t\t\"questions\": [\n\t\t\t{\n\t\t\t\t\"title\": \"Questions numero uno\",\n\t\t\t\t\"description\": \"I got better things to do that writing lengthy descriptions for development test stub objects\",\n\t\t\t\t\"tags\": [\"jeps\", \"jops\"],\n\t\t\t\t\"criteria\": [\n\t\t\t\t\t{\n\t\t\t\t\t\t\"type\": \"scale\",\n\t\t\t\t\t\t\"title\": \"importance\",\n\t\t\t\t\t\t\"description\": \"how important this is\",\n\t\t\t\t\t\t\"options\": {\n\t\t\t\t\t\t\t\"min\": 1,\n\t\t\t\t\t\t\t\"max\": 10,\n\t\t\t\t\t\t\t\"step\": 2\n\t\t\t\t\t\t}\n\t\t\t\t\t},\n\t\t\t\t\t{\n\t\t\t\t\t\t\"type\": \"select\",\n\t\t\t\t\t\t\"title\": \"classification\",\n\t\t\t\t\t\t\"description\": \"classify this question\",\n\t\t\t\t\t\t\"options\": {\n\t\t\t\t\t\t\t\"choices\": [\n\t\t\t\t\t\t\t\t{\n\t\t\t\t\t\t\t\t\t\"value\": 1,\n\t\t\t\t\t\t\t\t\t\"description\": \"pointless\"\n\t\t\t\t\t\t\t\t},\n\t\t\t\t\t\t\t\t{\n\t\t\t\t\t\t\t\t\t\"value\": 2,\n\t\t\t\t\t\t\t\t\t\"description\": \"useful\"\n\t\t\t\t\t\t\t\t},\n\t\t\t\t\t\t\t\t{\n\t\t\t\t\t\t\t\t\t\"value\": 3,\n\t\t\t\t\t\t\t\t\t\"description\": \"random\"\n\t\t\t\t\t\t\t\t}\n\t\t\t\t\t\t\t]\n\t\t\t\t\t\t}\n\t\t\t\t\t}\n\t\t\t\t]\n\t\t\t},\n\t\t\t{\n\t\t\t\t\"title\": \"Questions numero duo\",\n\t\t\t\t\"description\": \"Kömpelö pömpelö\",\n\t\t\t\t\"tags\": [\"jops\", \"jeps\"],\n\t\t\t\t\"index\": 0,\n\t\t\t\t\"criteria\": [\n\t\t\t\t\t{\n\t\t\t\t\t\t\"type\": \"scale\",\n\t\t\t\t\t\t\"title\": \"importance\",\n\t\t\t\t\t\t\"description\": \"how important this is\",\n\t\t\t\t\t\t\"options\": {\n\t\t\t\t\t\t\t\"min\": 1,\n\t\t\t\t\t\t\t\"max\": 10,\n\t\t\t\t\t\t\t\"step\": 2\n\t\t\t\t\t\t}\n\t\t\t\t\t},\n\t\t\t\t\t{\n\t\t\t\t\t\t\"type\": \"select\",\n\t\t\t\t\t\t\"title\": \"classification\",\n\t\t\t\t\t\t\"description\": \"classify this question\",\n\t\t\t\t\t\t\"options\": {\n\t\t\t\t\t\t\t\"choices\": [\n\t\t\t\t\t\t\t\t{\n\t\t\t\t\t\t\t\t\t\"value\": 1,\n\t\t\t\t\t\t\t\t\t\"description\": \"pointless\"\n\t\t\t\t\t\t\t\t},\n\t\t\t\t\t\t\t\t{\n\t\t\t\t\t\t\t\t\t\"value\": 2,\n\t\t\t\t\t\t\t\t\t\"description\": \"useful\"\n\t\t\t\t\t\t\t\t},\n\t\t\t\t\t\t\t\t{\n\t\t\t\t\t\t\t\t\t\"value\": 3,\n\t\t\t\t\t\t\t\t\t\"description\": \"random\"\n\t\t\t\t\t\t\t\t}\n\t\t\t\t\t\t\t]\n\t\t\t\t\t\t}\n\t\t\t\t\t}\n\t\t\t\t]\n\t\t\t}\n\t\t]\n\t}\n}"
				},
				"url": {
					"raw": "localhost:3000/survey/1/save",
					"host": [
						"localhost"
					],
					"port": "3000",
					"path": [
						"survey",
						"1",
						"save"
					]
				},
				"description": "Save the survey after editing it. Links field should contain Ids of userGroups for which invitation links need to be generated. Backend must either find or create these links."
			},
			"response": []
		},
		{
			"name": "setsurveydates",
			"request": {
				"method": "POST",
				"header": [],
				"body": {
					"mode": "formdata",
					"formdata": [
						{
							"key": "endDate",
							"value": "2017-12-18T10:43:08+02:00",
							"description": "this value might(??) be optional. If absent should be current datetime and then the survey is closed",
							"type": "text"
						},
						{
							"key": "startDate",
							"value": "2017-12-15T10:43:08+02:00",
							"description": "this value is optional",
							"type": "text"
						}
					]
				},
				"url": {
					"raw": "localhost:3000/survey/1/toggle",
					"host": [
						"localhost"
					],
					"port": "3000",
					"path": [
						"survey",
						"1",
						"toggle"
					]
				},
				"description": "Close, (re)open, or extend the survey by setting it's end date."
			},
			"response": []
		},
		{
			"name": "deletesurvey",
			"request": {
				"method": "POST",
				"header": [],
				"body": {},
				"url": {
					"raw": "localhost:3000/survey/1/delete",
					"host": [
						"localhost"
					],
					"port": "3000",
					"path": [
						"survey",
						"1",
						"delete"
					]
				},
				"description": "Delete the survey, if the user has rights to do it"
			},
			"response": []
		},
		{
			"name": "saveastemplate",
			"request": {
				"method": "POST",
				"header": [
					{
						"key": "Content-Type",
						"value": "application/json"
					}
				],
				"body": {},
				"url": {
					"raw": "localhost:3000/survey/1/saveAsTemplate",
					"host": [
						"localhost"
					],
					"port": "3000",
					"path": [
						"survey",
						"1",
						"saveAsTemplate"
					]
				},
				"description": "Saves an existing survey as a template. I think the survey should be saved as normal survey first before save as template button becomes available"
			},
			"response": []
		},
		{
			"name": "sendinvite",
			"request": {
				"method": "POST",
				"header": [
					{
						"key": "Content-Type",
						"value": "application/json"
					}
				],
				"body": {
					"mode": "raw",
					"raw": "{\r\n\t\"kompelo@pompelo.fi\": 1,\r\n\t\"ufail@life.com\": 4,\r\n\t\"teippi@jeesus.biltema\": 3\r\n}"
				},
				"url": {
					"raw": "localhost:3000/survey/1/sendInvite",
					"host": [
						"localhost"
					],
					"port": "3000",
					"path": [
						"survey",
						"1",
						"sendInvite"
					]
				},
				"description": "Send invites to given email: userGroup id combinations. The invitation links inside the email should be either generated or fetched for the userGroup ids passed for each email."
			},
			"response": []
		},
		{
			"name": "editsurvey",
			"request": {
				"method": "GET",
				"header": [],
				"body": {},
				"url": {
					"raw": "localhost:3000/survey/1/edit",
					"host": [
						"localhost"
					],
					"port": "3000",
					"path": [
						"survey",
						"1",
						"edit"
					]
				},
				"description": "Renders the editing page for this survey if the user has permissions to edit it"
			},
			"response": []
		},
		{
			"name": "listsurveys",
			"request": {
				"method": "GET",
				"header": [],
				"body": {},
				"url": {
					"raw": "localhost:3000/survey/1/list/active?evaluation=1",
					"host": [
						"localhost"
					],
					"port": "3000",
					"path": [
						"survey",
						"1",
						"list",
						"active"
					],
					"query": [
						{
							"key": "evaluation",
							"value": "1",
							"equals": true,
							"description": "this is optional"
						}
					]
				},
				"description": "List surveys the /active part is the filter and can be omitted to list all surveys this user can see. This part of the url can be either /active or /closed to apply a valid filter, otherwise an error should be thrown."
			},
			"response": []
		},
		{
			"name": "viewsurveyinfo",
			"request": {
				"method": "GET",
				"header": [],
				"body": {},
				"url": {
					"raw": "localhost:3000/survey/1/info",
					"host": [
						"localhost"
					],
					"port": "3000",
					"path": [
						"survey",
						"1",
						"info"
					]
				},
				"description": "Returns some information about a survey, if the user has permission to see it."
			},
			"response": []
		},
		{
			"name": "deletetemplate",
			"request": {
				"method": "GET",
				"header": [],
				"body": {},
				"url": {
					"raw": "localhost:3000/survey/template/1/delete",
					"host": [
						"localhost"
					],
					"port": "3000",
					"path": [
						"survey",
						"template",
						"1",
						"delete"
					]
				},
				"description": "Deletes an existing survey template if the user has the right to do it. This route can be called with any method (get, post, delete, put, etc.)"
			},
			"response": []
		},
		{
			"name": "login",
			"request": {
				"method": "POST",
				"header": [],
				"body": {
					"mode": "formdata",
					"formdata": [
						{
							"key": "username",
							"value": "test",
							"description": "this can be username OR email",
							"type": "text"
						},
						{
							"key": "password",
							"value": "test",
							"description": "",
							"type": "text"
						}
					]
				},
				"url": {
					"raw": "localhost:3000/user/login",
					"host": [
						"localhost"
					],
					"port": "3000",
					"path": [
						"user",
						"login"
					]
				},
				"description": "Logs the user in"
			},
			"response": []
		},
		{
			"name": "signup",
			"request": {
				"method": "POST",
				"header": [],
				"body": {
					"mode": "formdata",
					"formdata": [
						{
							"key": "username",
							"value": "test",
							"description": "",
							"type": "text"
						},
						{
							"key": "email",
							"value": "test@perkele.fi",
							"description": "",
							"type": "text"
						},
						{
							"key": "password",
							"value": "test",
							"description": "",
							"type": "text"
						},
						{
							"key": "confirmation",
							"value": "test",
							"description": "",
							"type": "text"
						},
						{
							"key": "userGroup",
							"value": "1",
							"description": "if this parameter is sent, the new user will be bound to this userGroup",
							"type": "text"
						},
						{
							"key": "userGroup.name",
							"value": "test coalition",
							"description": "if this parameter is sent a new empty userGroup will be created with this user as admin",
							"type": "text",
							"disabled": true
						},
						{
							"key": "userGroup.description",
							"value": "the void",
							"description": "this field is optional",
							"type": "text",
							"disabled": true
						}
					]
				},
				"url": {
					"raw": "localhost:3000/user/signup",
					"host": [
						"localhost"
					],
					"port": "3000",
					"path": [
						"user",
						"signup"
					]
				},
				"description": "Sings up a new user"
			},
			"response": []
		},
		{
			"name": "changeuserGroup",
			"request": {
				"method": "POST",
				"header": [],
				"body": {
					"mode": "formdata",
					"formdata": [
						{
							"key": "userGroup",
							"value": "2",
							"description": "",
							"type": "text"
						}
					]
				},
				"url": {
					"raw": "localhost:3000/user/changeUserGroup",
					"host": [
						"localhost"
					],
					"port": "3000",
					"path": [
						"user",
						"changeUserGroup"
					]
				},
				"description": "Changes the user's active userGroup binding, so that their answers to surveys will be recorded as those of the userGroup the id of which is passed. This is of course assuming the user has permission to this userGroup (I guess edit permissions is enough)."
			},
			"response": []
		},
		{
			"name": "changepassword",
			"request": {
				"method": "POST",
				"header": [],
				"body": {
					"mode": "formdata",
					"formdata": [
						{
							"key": "password",
							"value": "test",
							"description": "",
							"type": "text"
						},
						{
							"key": "confirmation",
							"value": "test",
							"description": "",
							"type": "text"
						},
						{
							"key": "oldpassword",
							"value": "swiggityswag",
							"description": "this is currently not needed, but should be",
							"type": "text"
						}
					]
				},
				"url": {
					"raw": "localhost:3000/user/change-password",
					"host": [
						"localhost"
					],
					"port": "3000",
					"path": [
						"user",
						"change-password"
					]
				},
				"description": "Changes the user's password. User must be logged in."
			},
			"response": []
		},
		{
			"name": "sendresettoken",
			"request": {
				"method": "POST",
				"header": [],
				"body": {
					"mode": "formdata",
					"formdata": [
						{
							"key": "username",
							"value": "test",
							"description": "",
							"type": "text"
						}
					]
				},
				"url": {
					"raw": "localhost:3000/user/password/reset/send",
					"host": [
						"localhost"
					],
					"port": "3000",
					"path": [
						"user",
						"password",
						"reset",
						"send"
					]
				},
				"description": "Creates and sends the password reset token to the user's email"
			},
			"response": []
		},
		{
			"name": "resetpassword",
			"request": {
				"method": "POST",
				"header": [],
				"body": {
					"mode": "formdata",
					"formdata": [
						{
							"key": "password",
							"value": "test",
							"description": "",
							"type": "text"
						},
						{
							"key": "confirmation",
							"value": "test",
							"description": "",
							"type": "text"
						}
					]
				},
				"url": {
					"raw": "localhost:3000/user/password/reset/1/123abc",
					"host": [
						"localhost"
					],
					"port": "3000",
					"path": [
						"user",
						"password",
						"reset",
						"1",
						"123abc"
					]
				},
				"description": "Reset the password of the user with id specified by the numerical portion of the url, followed by the reset token that must match the one that was previously created and sent to user's email."
			},
			"response": []
		},
		{
			"name": "logout",
			"request": {
				"method": "GET",
				"header": [],
				"body": {},
				"url": {
					"raw": "localhost:3000/user/logout",
					"host": [
						"localhost"
					],
					"port": "3000",
					"path": [
						"user",
						"logout"
					]
				},
				"description": "Logs the user out (destroys their session)"
			},
			"response": []
		},
		{
			"name": "showprofile",
			"request": {
				"method": "GET",
				"header": [],
				"body": {},
				"url": {
					"raw": "localhost:3000/user/profile",
					"host": [
						"localhost"
					],
					"port": "3000",
					"path": [
						"user",
						"profile"
					]
				},
				"description": "Renders the logged in user's profile"
			},
			"response": []
		},
		{
			"name": "search",
			"request": {
				"method": "GET",
				"header": [],
				"body": {},
				"url": {
					"raw": "localhost:3000/user/search?koresh",
					"host": [
						"localhost"
					],
					"port": "3000",
					"path": [
						"user",
						"search"
					],
					"query": [
						{
							"key": "koresh ",
							"value": "",
							"equals": false,
							"description": "this is the search string"
						},
						{
							"key": "!koresh",
							"value": "",
							"equals": false,
							"description": "this wpuld invert the search and show users not matching given string",
							"disabled": true
						},
						{
							"key": "koresh",
							"value": ""
						}
					]
				},
				"description": "Search users among those the logged in user can access profiles of (usually those in their userGroup or userGroups to which they have administrative rights)"
			},
			"response": []
		},
		{
			"name": "showuserinfo",
			"request": {
				"method": "GET",
				"header": [],
				"body": {},
				"url": {
					"raw": "localhost:3000/user/user/1/info",
					"host": [
						"localhost"
					],
					"port": "3000",
					"path": [
						"user",
						"user",
						"1",
						"info"
					]
				},
				"description": "Shows public information about a given user (i.e. their name, userGroup and what surveys/evaluations they participate in)"
			},
			"response": []
		},
		{
			"name": "editgroup",
			"request": {
				"method": "GET",
				"header": [],
				"body": {},
				"url": {
					"raw": "localhost:3000/usergroup/1/edit",
					"host": [
						"localhost"
					],
					"port": "3000",
					"path": [
						"userGroup",
						"1",
						"edit"
					]
				},
				"description": "Displays an editing screen for an userGroup if the user has permissions to edit it"
			},
			"response": []
		},
		{
			"name": "savegroup",
			"request": {
				"method": "POST",
				"header": [],
				"body": {
					"mode": "formdata",
					"formdata": [
						{
							"key": "name",
							"value": "updated name",
							"description": "",
							"type": "text"
						},
						{
							"key": "description",
							"value": "Updated Street 3",
							"description": "",
							"type": "text"
						},
						{
							"key": "users",
							"value": "[1,2,3,4,5,6]",
							"description": "Users that will be allowed to change to this userGroup if they weren't before",
							"type": "text"
						}
					]
				},
				"url": {
					"raw": "localhost:3000/usergroup/1/save",
					"host": [
						"localhost"
					],
					"port": "3000",
					"path": [
						"userGroup",
						"1",
						"save"
					]
				},
				"description": "Saves the userGroup after editing it"
			},
			"response": []
		},
		{
			"name": "deletegroup",
			"request": {
				"method": "POST",
				"header": [],
				"body": {},
				"url": {
					"raw": "localhost:3000/usergroup/1/delete",
					"host": [
						"localhost"
					],
					"port": "3000",
					"path": [
						"userGroup",
						"1",
						"delete"
					]
				},
				"description": "Deletes the userGroup with the given id, if the user has rights to do so"
			},
			"response": []
		},
		{
			"name": "searchgroupusers",
			"request": {
				"method": "GET",
				"header": [],
				"body": {},
				"url": {
					"raw": "localhost:3000/usergroup/1/search?testuser",
					"host": [
						"localhost"
					],
					"port": "3000",
					"path": [
						"userGroup",
						"1",
						"search"
					],
					"query": [
						{
							"key": "testuser",
							"value": "",
							"equals": false
						}
					]
				},
				"description": "Returns a list of users from this userGroup that match given search parameters"
			},
			"response": []
		},
		{
			"name": "createnewgroup",
			"request": {
				"method": "POST",
				"header": [],
				"body": {
					"mode": "formdata",
					"formdata": [
						{
							"key": "name",
							"value": "new group",
							"description": "",
							"type": "text"
						},
						{
							"key": "description",
							"value": "The Void",
							"description": "this field is optional",
							"type": "text"
						}
					]
				},
				"url": {
					"raw": "localhost:3000/usergroup/new",
					"host": [
						"localhost"
					],
					"port": "3000",
					"path": [
						"userGroup",
						"new"
					]
				},
				"description": "Creates new userGroup with given parameters and generates admin permission to it for the logged in user."
			},
			"response": []
		},
		{
			"name": "newevaluation",
			"request": {
				"method": "POST",
				"header": [],
				"body": {
					"mode": "formdata",
					"formdata": [
						{
							"key": "name",
							"value": "Memeficiation of the masses to the right of the 7th Meridian 2017",
							"description": "",
							"type": "text"
						}
					]
				},
				"url": {
					"raw": "localhost:3000/evaluation/1/new",
					"host": [
						"localhost"
					],
					"port": "3000",
					"path": [
						"evaluation",
						"1",
						"new"
					]
				},
				"description": "Creates a new evaluation with the given name and generates admin rights to it for the logged in user"
			},
			"response": []
		},
		{
			"name": "editevaluation",
			"request": {
				"method": "GET",
				"header": [],
				"body": {},
				"url": {
					"raw": "localhost:3000/evaluation/1/edit",
					"host": [
						"localhost"
					],
					"port": "3000",
					"path": [
						"evaluation",
						"1",
						"edit"
					]
				},
				"description": "Displays the evaluation edit page"
			},
			"response": []
		},
		{
			"name": "saveevaluation",
			"request": {
				"method": "POST",
				"header": [
					{
						"key": "Content-Type",
						"value": "application/json"
					}
				],
				"body": {
					"mode": "raw",
					"raw": "{\n\t\"title\": \"Updated evaluation title\",\n\t\"users\": {\n\t\t\"add\": [1,2,3,4],\n\t\t\"remove\": [5,4]\n\t},\n\t\"userGroups\": {\n\t\t\"add\": [1,2,3,4],\n\t\t\"remove\": [5,4]\n\t}\n}"
				},
				"url": {
					"raw": "localhost:3000/evaluation/1/save",
					"host": [
						"localhost"
					],
					"port": "3000",
					"path": [
						"evaluation",
						"1",
						"save"
					]
				},
				"description": "Updates an existing evaluation with provided data"
			},
			"response": []
		},
		{
			"name": "removeusers",
			"request": {
				"method": "POST",
				"header": [
					{
						"key": "Content-Type",
						"value": "application/json"
					}
				],
				"body": {
					"mode": "raw",
					"raw": "{\n\t\"users\": [1,2,3,4]\n}"
				},
				"url": {
					"raw": "localhost:3000/evaluation/1/removeUsers",
					"host": [
						"localhost"
					],
					"port": "3000",
					"path": [
						"evaluation",
						"1",
						"removeUsers"
					]
				},
				"description": "Removes the given user ids from this evaluation"
			},
			"response": []
		},
		{
			"name": "removeuserGroups",
			"request": {
				"method": "POST",
				"header": [
					{
						"key": "Content-Type",
						"value": "application/json"
					}
				],
				"body": {
					"mode": "raw",
					"raw": "{\n\t\"userGroups\": [1,2,3,4]\n}"
				},
				"url": {
					"raw": "localhost:3000/evaluation/1/removeUserGroup",
					"host": [
						"localhost"
					],
					"port": "3000",
					"path": [
						"evaluation",
						"1",
						"removeUserGroup"
					]
				},
				"description": "Disallows answers from the given userGroups to be posted to any survey in this evaluation"
			},
			"response": []
		},
		{
			"name": "listevaluations",
			"request": {
				"method": "GET",
				"header": [],
				"body": {},
				"url": {
					"raw": "localhost:3000/evaluation/list",
					"host": [
						"localhost"
					],
					"port": "3000",
					"path": [
						"evaluation",
						"list"
					]
				},
				"description": "Lists all evaluations"
			},
			"response": []
		},
		{
			"name": "listgroups",
			"request": {
				"method": "GET",
				"header": [],
				"body": {},
				"url": {
					"raw": "localhost:3000/evaluation/1/userGroups/participating",
					"host": [
						"localhost"
					],
					"port": "3000",
					"path": [
						"evaluation",
						"1",
						"userGroups",
						"participating"
					]
				},
				"description": "Lists userGroups that can or cannot participate in this evaluation. The last segment of the path is a filter. When set to notparticipating, userGroups that dont participate will be listed. If set to participating, only participating userGroups will be returned."
			},
			"response": []
		}
	]
}